EXMUTANTS

[SnMake]

t7:;	XMUTANT.S
	snasm68k $! XMUTANT.S,t7:,XMUTANT.SYM

!ifdef(debugstr)
	snbug68k /u- XMUTANT.SYM
!endif

[debug]
	snbug68k /u- XMUTANT.SYM

[eval]
	snbug68k /u- /v$$$ XMUTANT.SYM


