
Psy-Q Mega-CD version 1.24


Assembly completed.
0 error(s) from 181149 lines in 6.9 seconds
Temporary file of 147456 bytes was created

PSYLINK version 1.20


Linking completed.
0 error(s) in 4.7 seconds
